Crosstables – Descriptive Statistics
…
If you want conditional proportions—for example, proportions within each theme—you can use group_by():

songs %>%
  count(THEME, YEAR) %>%
  group_by(THEME) %>%
  mutate(prop_within_theme = n / sum(n)) %>%
  ungroup()

# A tibble: 346 × 4
   THEME       YEAR     n prop_within_theme
   <chr>      <int> <int>             <dbl>
 1 Heartbreak  1931     1           0.00690
 2 Heartbreak  1951     1           0.00690
 3 Heartbreak  1958     2           0.0138 
 4 Heartbreak  1959     1           0.00690
 5 Heartbreak  1961     2           0.0138 
 6 Heartbreak  1962     2           0.0138 
 7 Heartbreak  1963     2           0.0138 
 8 Heartbreak  1964     6           0.0414 
 9 Heartbreak  1965     4           0.0276 
10 Heartbreak  1966     9           0.0621 
# ℹ 336 more rows
…
